<svg width="136" height="32" viewBox="0 0 136 32" fill="none" xmlns="http://www.w3.org/2000/svg">
<rect width="136" height="32" rx="16" fill="#F6AE9F"/>
<path d="M25.1403 15.9832C25.1403 16.8004 24.9888 17.5235 24.6857 18.1527C24.3826 18.7819 23.951 19.2672 23.3909 19.6087C22.8346 19.9463 22.1996 20.1151 21.486 20.1151C20.7725 20.1151 20.1394 19.952 19.587 19.6259C19.0345 19.296 18.6029 18.826 18.2922 18.216C17.9852 17.606 17.8241 16.9059 17.8088 16.1155V15.6437C17.8088 14.8226 17.9584 14.0995 18.2576 13.4741C18.5607 12.8449 18.9923 12.3596 19.5525 12.0182C20.1164 11.6767 20.7571 11.506 21.4745 11.506C22.1843 11.506 22.8173 11.6748 23.3736 12.0124C23.9299 12.35 24.3615 12.8315 24.6684 13.4569C24.9792 14.0784 25.1365 14.792 25.1403 15.5976V15.9832ZM23.0859 15.6321C23.0859 14.7996 22.9458 14.1685 22.6658 13.7388C22.3895 13.3053 21.9925 13.0886 21.4745 13.0886C20.4617 13.0886 19.9265 13.8482 19.869 15.3674L19.8632 15.9832C19.8632 16.8042 19.9994 17.4353 20.2718 17.8765C20.5442 18.3177 20.9489 18.5383 21.486 18.5383C21.9963 18.5383 22.3895 18.3215 22.6658 17.888C22.942 17.4545 23.082 16.8311 23.0859 16.0177V15.6321ZM31.0378 15.5286L30.399 15.4825C29.789 15.4825 29.3977 15.6744 29.225 16.058V20H27.2857V13.7734H29.1042L29.1675 14.5733C29.4936 13.9633 29.9482 13.6583 30.5314 13.6583C30.7385 13.6583 30.9188 13.6813 31.0723 13.7273L31.0378 15.5286ZM32.5559 16.8406C32.5559 15.8547 32.7688 15.0778 33.1946 14.51C33.6205 13.9422 34.2152 13.6583 34.9786 13.6583C35.5349 13.6583 36.003 13.877 36.3828 14.3143V11.1607H38.3279V20H36.5842L36.4864 19.3324C36.0874 19.8542 35.5809 20.1151 34.9671 20.1151C34.2267 20.1151 33.6397 19.8312 33.2062 19.2634C32.7726 18.6956 32.5559 17.888 32.5559 16.8406ZM34.4952 16.9615C34.4952 18.0664 34.8175 18.6189 35.462 18.6189C35.8917 18.6189 36.1986 18.4385 36.3828 18.0779V15.707C36.2063 15.3387 35.9032 15.1545 35.4735 15.1545C34.875 15.1545 34.5509 15.6379 34.501 16.6047L34.4952 16.9615ZM43.6211 20.1151C42.6658 20.1151 41.8928 19.8312 41.3019 19.2634C40.7111 18.6918 40.4157 17.9494 40.4157 17.0363V16.8752C40.4157 16.2383 40.5327 15.6763 40.7667 15.189C41.0046 14.7018 41.3499 14.3258 41.8026 14.0611C42.2553 13.7926 42.7924 13.6583 43.4139 13.6583C44.2886 13.6583 44.9792 13.9307 45.4856 14.4754C45.992 15.0164 46.2453 15.7722 46.2453 16.7428V17.4967H42.3896C42.4586 17.8458 42.6102 18.1201 42.8442 18.3196C43.0782 18.5191 43.3813 18.6189 43.7535 18.6189C44.3673 18.6189 44.8469 18.404 45.1921 17.9743L46.0784 19.0217C45.8367 19.3555 45.4933 19.6221 45.0483 19.8216C44.6071 20.0173 44.1313 20.1151 43.6211 20.1151ZM43.4024 15.1545C42.8346 15.1545 42.497 15.5305 42.3896 16.2824H44.3462V16.1328C44.3539 15.8221 44.2752 15.5823 44.1102 15.4135C43.9453 15.2408 43.7093 15.1545 43.4024 15.1545ZM51.9758 15.5286L51.3371 15.4825C50.7271 15.4825 50.3357 15.6744 50.1631 16.058V20H48.2237V13.7734H50.0422L50.1055 14.5733C50.4316 13.9633 50.8863 13.6583 51.4694 13.6583C51.6766 13.6583 51.8569 13.6813 52.0104 13.7273L51.9758 15.5286ZM64.8354 17.1629C64.8085 17.7461 64.6512 18.2621 64.3635 18.7109C64.0758 19.156 63.671 19.5013 63.1492 19.7468C62.6313 19.9923 62.0386 20.1151 61.371 20.1151C60.2699 20.1151 59.4029 19.7564 58.7699 19.039C58.1369 18.3215 57.8203 17.3087 57.8203 16.0005V15.5861C57.8203 14.7651 57.9623 14.0477 58.2462 13.4338C58.5339 12.8162 58.9464 12.3404 59.4835 12.0067C60.0206 11.6691 60.6421 11.5002 61.348 11.5002C62.3647 11.5002 63.1818 11.7688 63.7995 12.3059C64.4172 12.8392 64.7682 13.5758 64.8526 14.5157H62.8385C62.8231 14.0055 62.6946 13.6391 62.4529 13.4166C62.2112 13.1941 61.8429 13.0828 61.348 13.0828C60.8454 13.0828 60.4771 13.2708 60.2431 13.6468C60.0091 14.0227 59.8863 14.6232 59.8748 15.448V16.0407C59.8748 16.9346 59.986 17.5734 60.2086 17.9571C60.4349 18.3407 60.8224 18.5325 61.371 18.5325C61.8352 18.5325 62.1901 18.4232 62.4356 18.2045C62.6812 17.9858 62.8116 17.6386 62.827 17.1629H64.8354ZM70.3876 20C70.3185 19.8734 70.2571 19.6873 70.2034 19.4418C69.8466 19.8907 69.3479 20.1151 68.7072 20.1151C68.1202 20.1151 67.6214 19.9386 67.2109 19.5857C66.8004 19.2289 66.5952 18.7819 66.5952 18.2448C66.5952 17.5696 66.8446 17.0593 67.3433 16.714C67.842 16.3688 68.5671 16.1961 69.5186 16.1961H70.1171V15.8681C70.1171 15.2965 69.8696 15.0106 69.3747 15.0106C68.9143 15.0106 68.6842 15.237 68.6842 15.6897H66.7448C66.7448 15.0874 66.9999 14.5982 67.5102 14.2222C68.0243 13.8463 68.6784 13.6583 69.4726 13.6583C70.2667 13.6583 70.894 13.852 71.3544 14.2395C71.8147 14.627 72.0507 15.1583 72.0622 15.8336V18.5901C72.0699 19.1617 72.1581 19.5991 72.3269 19.9022V20H70.3876ZM69.1733 18.734C69.415 18.734 69.6145 18.6822 69.7718 18.5786C69.9329 18.475 70.048 18.358 70.1171 18.2275V17.232H69.5531C68.8779 17.232 68.5403 17.5351 68.5403 18.1412C68.5403 18.3177 68.5997 18.4616 68.7187 18.5728C68.8376 18.6802 68.9892 18.734 69.1733 18.734ZM76.1009 13.7734L76.1642 14.5042C76.5939 13.9403 77.1866 13.6583 77.9424 13.6583C78.5907 13.6583 79.0741 13.852 79.3926 14.2395C79.7148 14.627 79.8817 15.2101 79.8932 15.9889V20H77.9481V16.0695C77.9481 15.7549 77.8848 15.5247 77.7582 15.3789C77.6316 15.2293 77.4014 15.1545 77.0677 15.1545C76.6878 15.1545 76.4059 15.3041 76.2217 15.6034V20H74.2824V13.7734H76.1009ZM84.7836 18.6189C85.056 18.6189 85.267 18.546 85.4166 18.4002C85.5663 18.2506 85.6392 18.0434 85.6353 17.7787H87.4538C87.4538 18.4616 87.2083 19.0217 86.7172 19.4591C86.23 19.8964 85.6008 20.1151 84.8297 20.1151C83.9242 20.1151 83.2107 19.8312 82.6889 19.2634C82.1671 18.6956 81.9062 17.9091 81.9062 16.9039V16.8234C81.9062 16.1942 82.0213 15.6398 82.2515 15.1603C82.4856 14.6769 82.8213 14.3066 83.2586 14.0496C83.696 13.7887 84.2139 13.6583 84.8124 13.6583C85.6219 13.6583 86.2645 13.8827 86.7402 14.3316C87.216 14.7804 87.4538 15.3885 87.4538 16.1558H85.6353C85.6353 15.8336 85.5567 15.5861 85.3994 15.4135C85.2421 15.2408 85.0311 15.1545 84.7664 15.1545C84.2638 15.1545 83.9703 15.4749 83.8859 16.1155C83.859 16.3189 83.8456 16.5989 83.8456 16.9557C83.8456 17.5811 83.9204 18.0146 84.07 18.2563C84.2197 18.498 84.4575 18.6189 84.7836 18.6189ZM92.4651 20.1151C91.5098 20.1151 90.7367 19.8312 90.1459 19.2634C89.5551 18.6918 89.2597 17.9494 89.2597 17.0363V16.8752C89.2597 16.2383 89.3767 15.6763 89.6107 15.189C89.8486 14.7018 90.1938 14.3258 90.6466 14.0611C91.0993 13.7926 91.6364 13.6583 92.2579 13.6583C93.1326 13.6583 93.8232 13.9307 94.3296 14.4754C94.836 15.0164 95.0892 15.7722 95.0892 16.7428V17.4967H91.2335C91.3026 17.8458 91.4541 18.1201 91.6882 18.3196C91.9222 18.5191 92.2253 18.6189 92.5974 18.6189C93.2113 18.6189 93.6908 18.404 94.0361 17.9743L94.9223 19.0217C94.6806 19.3555 94.3373 19.6221 93.8922 19.8216C93.451 20.0173 92.9753 20.1151 92.4651 20.1151ZM92.2464 15.1545C91.6786 15.1545 91.341 15.5305 91.2335 16.2824H93.1902V16.1328C93.1978 15.8221 93.1192 15.5823 92.9542 15.4135C92.7892 15.2408 92.5533 15.1545 92.2464 15.1545ZM99.0991 20H97.154V11.1607H99.0991V20ZM103.523 20H101.578V11.1607H103.523V20ZM108.914 20.1151C107.959 20.1151 107.186 19.8312 106.595 19.2634C106.004 18.6918 105.709 17.9494 105.709 17.0363V16.8752C105.709 16.2383 105.826 15.6763 106.06 15.189C106.298 14.7018 106.643 14.3258 107.096 14.0611C107.549 13.7926 108.086 13.6583 108.707 13.6583C109.582 13.6583 110.273 13.9307 110.779 14.4754C111.285 15.0164 111.539 15.7722 111.539 16.7428V17.4967H107.683C107.752 17.8458 107.903 18.1201 108.138 18.3196C108.372 18.5191 108.675 18.6189 109.047 18.6189C109.661 18.6189 110.14 18.404 110.485 17.9743L111.372 19.0217C111.13 19.3555 110.787 19.6221 110.342 19.8216C109.9 20.0173 109.425 20.1151 108.914 20.1151ZM108.696 15.1545C108.128 15.1545 107.79 15.5305 107.683 16.2824H109.64V16.1328C109.647 15.8221 109.569 15.5823 109.404 15.4135C109.239 15.2408 109.003 15.1545 108.696 15.1545ZM113.258 16.8406C113.258 15.8547 113.471 15.0778 113.897 14.51C114.323 13.9422 114.917 13.6583 115.681 13.6583C116.237 13.6583 116.705 13.877 117.085 14.3143V11.1607H119.03V20H117.286L117.189 19.3324C116.79 19.8542 116.283 20.1151 115.669 20.1151C114.929 20.1151 114.342 19.8312 113.908 19.2634C113.475 18.6956 113.258 17.888 113.258 16.8406ZM115.197 16.9615C115.197 18.0664 115.52 18.6189 116.164 18.6189C116.594 18.6189 116.901 18.4385 117.085 18.0779V15.707C116.909 15.3387 116.605 15.1545 116.176 15.1545C115.577 15.1545 115.253 15.6379 115.203 16.6047L115.197 16.9615Z" fill="#EA001B"/>
</svg>
