<svg width="18" height="20" viewBox="0 0 18 20" fill="none" xmlns="http://www.w3.org/2000/svg">
<path fill-rule="evenodd" clip-rule="evenodd" d="M8.98409 2.83643e-05C8.98264 0.000500213 8.9812 0.000980999 8.97976 0.00147066C8.97736 0.00144719 8.97495 0.00144719 8.97255 0.00147066C8.92918 0.0045777 8.8867 0.0153195 8.84707 0.0332012L0.311563 3.68365C0.223945 3.69751 0.144244 3.74245 0.0870388 3.81025C0.0298334 3.87805 -0.00105339 3.96418 2.74345e-05 4.05288V15.1312C-0.000414209 15.1838 0.0104045 15.2359 0.0317579 15.284C0.0322298 15.2855 0.0327106 15.2869 0.0332002 15.2884C0.036359 15.2952 0.0397259 15.3019 0.0432963 15.3086C0.0830519 15.388 0.150136 15.4505 0.232237 15.4845L8.77351 19.1364C8.84657 19.189 8.93633 19.2131 9.02592 19.2042C9.09063 19.2008 9.15331 19.1804 9.20764 19.1451L17.7691 15.4845C17.8291 15.4601 17.8816 15.4203 17.9213 15.3692C17.9611 15.318 17.9867 15.2573 17.9956 15.1932C17.9967 15.1865 17.9977 15.1797 17.9984 15.173C17.9991 15.1672 17.9995 15.1615 17.9999 15.1557C18 15.1494 18 15.1432 17.9999 15.1369C17.9999 15.135 17.9999 15.1331 17.9999 15.1312V4.05288C18.0008 3.96527 17.9706 3.88017 17.9146 3.81279C17.8586 3.74542 17.7804 3.70016 17.6941 3.68509L9.15284 0.0332012C9.14526 0.0295744 9.13757 0.0262071 9.12976 0.0231051C9.1288 0.0226201 9.12784 0.0221394 9.12688 0.0216628C9.11596 0.0182662 9.10489 0.0153785 9.0937 0.013009C9.08987 0.0119856 9.08603 0.0110239 9.08216 0.0101244C9.07406 0.0079231 9.06588 0.00599892 9.05765 0.00435525C9.05381 0.00381394 9.04996 0.00333315 9.04611 0.00291296C9.03795 0.00216045 9.02978 0.0016794 9.02159 0.00147066C9.00912 0.000354616 8.99661 -0.000126783 8.98409 2.83643e-05ZM8.99995 0.771657L10.81 1.54473L3.13846 4.82595C3.13115 4.82908 3.12393 4.83245 3.11683 4.83605L1.30531 4.06153L8.99995 0.771657ZM11.749 1.94713L13.9456 2.88606L6.13123 6.22786C6.05896 6.2588 5.99845 6.31199 5.9585 6.37969C5.91855 6.4474 5.90125 6.52608 5.90911 6.6043C5.90779 6.61868 5.90731 6.63313 5.90767 6.64757V10.598L5.1072 9.39659C5.0573 9.32188 4.98188 9.26793 4.89507 9.24483C4.80825 9.22173 4.71599 9.23107 4.63557 9.27111L3.69231 9.74274V5.39277L11.749 1.94713ZM14.8845 3.28702L16.696 4.06153L8.99995 7.35141L7.18987 6.57834L14.8629 3.29712C14.8702 3.29399 14.8774 3.29062 14.8845 3.28702ZM0.738483 4.62114L2.95385 5.56873V10.3398C2.95379 10.4029 2.96987 10.4649 3.00056 10.52C3.03124 10.575 3.07552 10.6213 3.12916 10.6544C3.1828 10.6875 3.24403 10.7064 3.30701 10.7091C3.36998 10.7119 3.43262 10.6984 3.48894 10.6701L4.67307 10.0773L5.9495 11.9913C5.99007 12.0691 6.05706 12.13 6.13844 12.1629C6.14931 12.1673 6.16038 12.1711 6.17161 12.1744C6.17209 12.1749 6.17257 12.1754 6.17305 12.1759C6.1966 12.1826 6.22076 12.1869 6.24517 12.1889C6.25764 12.19 6.27015 12.1905 6.28267 12.1903C6.2947 12.1904 6.30674 12.1899 6.31873 12.1889C6.33134 12.1871 6.34386 12.1847 6.35623 12.1817C6.36349 12.18 6.37071 12.178 6.37786 12.1759C6.3822 12.175 6.38653 12.174 6.39084 12.173C6.47352 12.147 6.5444 12.0927 6.59107 12.0196C6.63774 11.9466 6.65723 11.8595 6.64613 11.7735V7.14949L8.63073 7.99756V18.2725L0.738483 14.8975V4.62114ZM17.2614 4.62259V14.8975L9.36918 18.2739V7.99756L17.2614 4.62259ZM12.6273 13.1091C12.6259 13.1095 12.6244 13.11 12.623 13.1105C12.5772 13.1127 12.5322 13.1235 12.4903 13.1422L10.337 14.0624C10.2469 14.1009 10.1758 14.1735 10.1392 14.2644C10.1027 14.3553 10.1038 14.4569 10.1423 14.547C10.1807 14.6371 10.2534 14.7082 10.3442 14.7447C10.4351 14.7813 10.5368 14.7802 10.6269 14.7417L12.7817 13.8216C12.8633 13.7895 12.9309 13.7295 12.9723 13.6522C13.0137 13.5749 13.0262 13.4853 13.0076 13.3996C12.9891 13.3139 12.9406 13.2376 12.8709 13.1844C12.8013 13.1311 12.7149 13.1044 12.6273 13.1091ZM14.7763 13.6629C14.731 13.6653 14.6865 13.6761 14.6451 13.6946L12.4903 14.6148L10.337 15.5364C10.2469 15.5749 10.1758 15.6475 10.1392 15.7384C10.1027 15.8293 10.1038 15.931 10.1423 16.0211C10.1807 16.1111 10.2534 16.1823 10.3442 16.2188C10.4351 16.2553 10.5368 16.2542 10.6269 16.2158L12.7817 15.2941L14.935 14.3725C15.015 14.3391 15.0807 14.2785 15.1206 14.2015C15.1604 14.1245 15.1719 14.0359 15.153 13.9512C15.134 13.8666 15.0859 13.7913 15.0171 13.7386C14.9482 13.6859 14.863 13.6591 14.7763 13.6629Z" fill="#464C50"/>
</svg>
