<svg width="259" height="78" viewBox="0 0 259 78" fill="none" xmlns="http://www.w3.org/2000/svg">
<path d="M88.5421 45.1466C88.5421 46.6473 89.0423 47.7729 89.9177 48.7734C90.9182 49.7738 92.0438 50.149 93.2944 50.149C94.67 50.149 95.7955 49.6488 96.671 48.7734C97.6714 47.8979 98.0466 46.6473 98.0466 45.1466C98.0466 43.6459 97.5464 42.5203 96.671 41.6448C95.7955 40.7694 94.67 40.2692 93.2944 40.2692C91.9187 40.2692 90.7931 40.7694 89.9177 41.6448C89.0423 42.3952 88.5421 43.6459 88.5421 45.1466ZM88.417 55.5265H82.2891V23.6362H88.417V37.3928C88.9172 36.5174 89.6676 35.7671 90.7931 35.2668C91.9187 34.7666 93.1693 34.5165 94.4199 34.5165C97.1712 34.5165 99.5474 35.517 101.423 37.518C103.424 39.5189 104.425 42.1451 104.425 45.3967C104.425 48.5232 103.424 51.1495 101.423 53.1505C99.4223 55.1514 97.1712 56.1518 94.4199 56.1518C93.0442 56.1518 91.9187 55.9017 90.7931 55.4015C89.6676 54.9012 88.9172 54.1509 88.417 53.1505V55.5265ZM118.431 49.8988C119.807 49.8988 120.808 49.5236 121.808 48.6482C122.683 47.7728 123.184 46.6473 123.184 45.1466C123.184 43.7709 122.683 42.6453 121.808 41.7699C120.933 40.8945 119.807 40.3942 118.431 40.3942C117.181 40.3942 116.055 40.8945 115.055 41.7699C114.179 42.6453 113.679 43.7709 113.679 45.1466C113.679 46.5223 114.179 47.7728 115.055 48.6482C115.93 49.3985 117.056 49.8988 118.431 49.8988ZM125.935 52.9003C123.934 54.9012 121.308 55.9017 118.306 55.9017C115.305 55.9017 112.804 54.9012 110.678 52.9003C108.677 50.8993 107.551 48.2731 107.551 45.1466C107.551 42.0201 108.552 39.3937 110.678 37.3928C112.804 35.3918 115.305 34.3915 118.306 34.3915C121.308 34.3915 123.809 35.3918 125.935 37.3928C128.061 39.3937 129.062 41.895 129.062 45.1466C129.062 48.2731 128.061 50.8993 125.935 52.9003ZM138.316 44.3963L131.563 34.8916H138.691L141.818 39.3939L144.819 34.8916H151.948L145.194 44.3963L153.323 55.5265H146.195L141.818 49.1485L137.441 55.5265H130.312L138.316 44.3963ZM158.326 52.9003C156.075 50.8993 154.949 48.2731 154.949 45.1466C154.949 42.0201 156.075 39.3939 158.326 37.518C160.577 35.517 163.203 34.5165 166.204 34.5165C168.08 34.5165 169.706 34.8917 171.332 35.6421C172.958 36.3924 174.208 37.5179 175.209 38.8936L170.206 42.5204C169.331 41.1447 167.955 40.3942 166.204 40.3942C164.829 40.3942 163.703 40.8945 162.578 41.7699C161.577 42.6453 161.077 43.7709 161.077 45.2716C161.077 46.7723 161.577 47.8979 162.578 48.8984C163.578 49.7738 164.829 50.274 166.204 50.274C167.955 50.274 169.331 49.5237 170.206 48.1481L175.209 51.6497C174.208 53.0253 172.958 54.1508 171.332 54.9012C169.831 55.6515 168.08 56.0268 166.204 56.0268C163.203 56.0268 160.452 54.9012 158.326 52.9003ZM188.59 49.8988C189.966 49.8988 190.966 49.5236 191.967 48.6482C192.842 47.7728 193.342 46.6473 193.342 45.1466C193.342 43.7709 192.842 42.6453 191.967 41.7699C191.091 40.8945 189.966 40.3942 188.59 40.3942C187.34 40.3942 186.214 40.8945 185.213 41.7699C184.338 42.6453 183.838 43.7709 183.838 45.1466C183.838 46.5223 184.338 47.7728 185.213 48.6482C186.214 49.3985 187.34 49.8988 188.59 49.8988ZM196.219 52.9003C194.218 54.9012 191.592 55.9017 188.59 55.9017C185.589 55.9017 183.087 54.9012 180.961 52.9003C178.96 50.8993 177.835 48.2731 177.835 45.1466C177.835 42.0201 178.835 39.3937 180.961 37.3928C183.087 35.3918 185.589 34.3915 188.59 34.3915C191.592 34.3915 194.093 35.3918 196.219 37.3928C198.345 39.3937 199.345 41.895 199.345 45.1466C199.345 48.2731 198.345 50.8993 196.219 52.9003ZM209.975 44.6463V55.5265H203.847V34.8916H209.975V37.893C210.476 36.8926 211.351 36.0171 212.477 35.3918C213.602 34.7665 214.728 34.3915 215.978 34.3915C218.354 34.3915 220.23 35.1417 221.606 36.6424C222.982 38.1432 223.607 40.2693 223.607 43.1457V55.5265H217.479V44.5213C217.479 43.1456 217.104 42.1451 216.479 41.5198C215.853 40.7695 214.978 40.5193 213.852 40.5193C211.226 40.3942 209.975 41.7699 209.975 44.6463ZM235.112 44.6463V55.5265H228.985V34.8916H235.112V37.893C235.613 36.8926 236.488 36.0171 237.614 35.3918C238.739 34.7665 239.865 34.3915 241.115 34.3915C243.491 34.3915 245.367 35.1417 246.743 36.6424C248.119 38.1432 248.744 40.2693 248.744 43.1457V55.5265H242.616V44.5213C242.616 43.1456 242.241 42.1451 241.616 41.5198C240.99 40.7695 240.115 40.5193 238.989 40.5193C236.363 40.3942 235.112 41.7699 235.112 44.6463Z" fill="white"/>
<path d="M255.123 55.1515C257.249 55.1515 259 53.4006 259 51.2746C259 49.1486 257.249 47.3976 255.123 47.3976C252.997 47.3976 251.246 49.1486 251.246 51.2746C251.246 53.4006 252.997 55.1515 255.123 55.1515Z" fill="white"/>
<path d="M38.018 0L2.00073 7.00333L38.018 23.5112L73.6601 7.25339L38.018 0Z" fill="white"/>
<path d="M75.5362 10.7553L39.769 28.0135V77.9125L71.5343 58.4032L75.5362 10.7553Z" fill="white"/>
<path d="M35.7672 28.2637L0 10.7553L4.12699 58.4032L35.7672 77.6624V28.2637Z" fill="white"/>
</svg>
